{
  "profiles": {
    "Scheduling.API": {
      "commandName": "Project",
      "launchBrowser": true,
      "applicationUrl": "http://localhost:9000/swagger",
      "environmentVariables": {
        "ASPNETCORE_ENVIRONMENT": "Development",
        "ASPNETCORE_HTTP_PORTS": "9000"
      }
    },
    "Docker": {
      "commandName": "Docker",
      "launchBrowser": true,
      "launchUrl": "{Scheme}://{ServiceHost}:{ServicePort}/swagger",
      "publishAllPorts": true,
      "httpPort": 8080,
      "sslPort": 8081
    }
  },
  "iisSettings": {
    "windowsAuthentication": false,
    "anonymousAuthentication": true,
    "iisExpress": {
      "applicationUrl": "http://localhost:35661",
      "sslPort": 44354,
      "httpPort":  5000
    }
  },
  "IIS Express": {
    "commandName": "IISExpress",
    "launchBrowser": true,
    "environmentVariables": {
      "ASPNETCORE_ENVIRONMENT": "Development"
    }
  }
}